module proxym

go 1.20

require (
	github.com/PuerkitoBio/goquery v1.8.1
	golang.org/x/sys v0.5.0
)

require (
	github.com/andybalholm/cascadia v1.3.1 // indirect
	golang.org/x/net v0.7.0 // indirect
)
